#include <Stepper.h>
#Erick Brito
Stepper motor1(2048,8,10,9,11); // pasos complets
int Valor;
void setup() {
  motor1.setSpeed(3); // Establim la velocitat amb rpm 
  Serial.begin(9600);
  
  
}

void loop() {
  motor1.step(256); // quantitat de passos
  Serial.println(Valor); 
  delay(5000);
  
  if (Serial.available()){  // Mentre no li entris un valor per el monitor seria no entra el if
    int passos=Serial.parseInt(); // Converteix el valor que li entres a enter
    Serial.println(passos);
    motor1.step(passos); // Executa els passos que li has entrat
    delay(5000);
    
    
  }
  
  
 

}